﻿beautiful_peasant_character = {
	age = { 18 35 }
	random_traits_list = {
		count = 1
		beauty_good_2 = {}
		beauty_good_3 = {}
	}
	dynasty = none
	random_traits = yes
	faith = this.faith
	culture = this.culture
	diplomacy = {
		min_template_decent_skill
		max_template_decent_skill
	}
	#Anbennar
	after_creation = {
		if = {
			limit = {
				NOT = { has_racial_trait = yes }
			}
			assign_racial_trait_effect = yes
		}
	}
}

servant_character = {
	age = { 18 40 }
	random_traits = yes
	culture = this.culture
	faith = this.faith
	dynasty = none
	gender_female_chance = 50
	intrigue = {
		min_template_decent_skill
		max_template_decent_skill
	}
	#Anbennar
	after_creation = {
		if = {
			limit = {
				NOT = { has_racial_trait = yes }
			}
			assign_racial_trait_effect = yes
		}
	}
}

witchy_template = {
	age = { 15 63 }
	gender_female_chance = 50
	culture = root.culture
	faith = root.faith
	dynasty = none
	random_traits = no

	#Education
	random_traits_list = {
		count = 1
		education_intrigue_2  = {}
		education_intrigue_3  = {}
		education_intrigue_4  = {}
		education_learning_2  = {}
		education_learning_3  = {}
		education_learning_4  = {}
		education_diplomacy_3  = {}
		education_diplomacy_4  = {}
	}
	#Personality trait 1 (main)
	random_traits_list = {
		count = 1
		lustful = {}
		deceitful = {}
		brave = {}
		gregarious = {}
		ambitious = {}
		vengeful = {}
	}
	#Personality trait 2-3
	random_traits_list = {
		count = 2
		lustful = {}
		deceitful = {}
		brave = {}
		gregarious = {}
		ambitious = {}
		vengeful = {}
		gluttonous = {}
		temperate  = {}
		greedy = {}
		generous = {}
		lazy = {}
		diligent = {}
		wrathful = {}
		calm = {}
		patient = {}
		impatient = {}
		arrogant = {}
		honest = {}
		arbitrary = {}
		just = {}
		paranoid = {}
		trusting = {}
		compassionate = {}
		callous = {}
		sadistic = {}
		stubborn = {}
		fickle = {}
		forgiving = {}
	}
	random_traits_list = {
		count = 1
		beauty_good_1 = {}
		beauty_good_2 = {}
		beauty_good_3 = {}
		intellect_good_1 = {}
		intellect_good_2 = {}
		intellect_good_3 = {}
		shrewd  = {}
		fecund = {}
		dwarf = {}
		giant = {}
		albino = {}
		bleeder = {}
		lunatic_1 = {}
		possessed_1 = {}
	}
	random_traits_list = {
		count = 1
		lifestyle_herbalist = {}
		schemer = {}
		seducer = {}
		torturer = {}
		whole_of_body = {}
		scholar = {}
	}
	#Anbennar
	after_creation = {
		if = {
			limit = {
				NOT = { has_racial_trait = yes }
			}
			assign_racial_trait_effect = yes
		}
	}
}


merchant_template = {
	age = { 20 40 }
	random_traits_list = {
		count = 1
		education_stewardship_1 = {}
		education_stewardship_2 = {}
		education_stewardship_3 = {}
		education_stewardship_4 = {}
	}
	dynasty = none
	random_traits = yes
	faith = this.faith
	culture = this.culture
	gender_female_chance = root_faith_dominant_gender_adjusted_female_chance
	stewardship = {
		min_template_decent_skill
		max_template_decent_skill
	}
	prowess = { 2 10 }
	martial = { 2 10 }
	diplomacy = { 5 13 }
	learning = { 5 13 }
	#Anbennar
	after_creation = {
		if = {
			limit = {
				NOT = { has_racial_trait = yes }
			}
			assign_racial_trait_effect = yes
		}
	}
}

hunter_template = {
	age = { 18 50 }
	dynasty = none
	random_traits = yes
	faith = this.faith
	culture = this.culture
	gender_female_chance = root_soldier_female_chance
	prowess = {
		min_template_decent_skill
		max_template_decent_skill
	}
	random_traits_list = {
		count = 1
		education_martial_1 = {}
		education_martial_2 = {}
	}
	random_traits_list = {
		count = 1
		hunter_1 = {}
		hunter_2 = {}
		hunter_3 = {}
	}
	random_traits_list = {
		count = 1
		brave = {}
		calm = {}
		shy = {}
		patient = {}
		physique_good_1 = {}
		physique_good_2 = {}
		strong = {}
		deceitful = {}
		greedy = {}
		callous = {}
		diligent = {}
		arrogant = {}
		stubborn = {}
		athletic = {}
	}
	#Anbennar
	after_creation = {
		if = {
			limit = {
				NOT = { has_racial_trait = yes }
			}
			assign_racial_trait_effect = yes
		}
	}
}

detective_template = {
	age = { 30 40 }
	dynasty = none
	faith = this.faith
	culture = this.culture
	gender_female_chance = 0
	random_traits = yes
	random_traits_list = {
		count = 1
		education_learning_1 = {}
		education_learning_2 = {}
		education_learning_3 = {}
	}
	random_traits_list = {
		count = 1
		intellect_good_1 = {}
		intellect_good_2 = {}
	}
	martial = {
		min_template_decent_skill
		max_template_decent_skill
	}
	stewardship = { 2 10 }
	prowess = { 5 13 }
	diplomacy = { 2 10 }
	learning = { 5 10 }
	#Anbennar
	after_creation = {
		if = {
			limit = {
				NOT = { has_racial_trait = yes }
			}
			assign_racial_trait_effect = yes
		}
	}
}

generic_peasant_character = {
	age = { 18 50 }
	random_traits = yes
	culture = root.culture
	faith = root.faith
	gender_female_chance = 50
	dynasty = none
	martial = {
		min_template_low_skill
		max_template_low_skill
	}
	stewardship = {
		min_template_low_skill
		max_template_low_skill
	}
	diplomacy = {
		min_template_low_skill
		max_template_low_skill
	}
	intrigue = {
		min_template_low_skill
		max_template_low_skill
	}
	learning = {
		min_template_low_skill
		max_template_low_skill
	}
	#Anbennar
	after_creation = {
		if = {
			limit = {
				NOT = { has_racial_trait = yes }
			}
			assign_racial_trait_effect = yes
		}
	}
}

generic_female_peasant_character = {
	age = { 18 50 }
	random_traits = yes
	culture = root.culture
	faith = root.faith
	gender = female
	dynasty = none
	martial = {
		min_template_low_skill
		max_template_low_skill
	}
	stewardship = {
		min_template_low_skill
		max_template_low_skill
	}
	diplomacy = {
		min_template_low_skill
		max_template_low_skill
	}
	intrigue = {
		min_template_low_skill
		max_template_low_skill
	}
	learning = {
		min_template_low_skill
		max_template_low_skill
	}
	#Anbennar
	after_creation = {
		if = {
			limit = {
				NOT = { has_racial_trait = yes }
			}
			assign_racial_trait_effect = yes
		}
	}
}

challenger_peasant_character = {
	age = { 18 45 }
	dynasty = none
	random_traits = yes
	gender_female_chance = root_soldier_female_chance
	faith = root.faith
	culture = root.culture
	trait = zealous
	martial = {
		min_template_decent_skill
		max_template_decent_skill
	}
	stewardship = { 2 4 }
	prowess = { 5 13 }
	diplomacy = { 2 6 }
	learning = { 5 7 }
	#Anbennar
	after_creation = {
		if = {
			limit = {
				NOT = { has_racial_trait = yes }
			}
			assign_racial_trait_effect = yes
		}
	}
}

peasant_character = {
	age = { 18 40 }
	dynasty = none
	trait = peasant_leader
	random_traits = yes
	#Anbennar
	after_creation = {
		if = {
			limit = {
				NOT = { has_racial_trait = yes }
			}
			assign_racial_trait_effect = yes
		}
	}
}
