#k_kumarses
##d_kumarses
###c_kumarses
591 = {		#Kumarses

    # Misc
    culture = zanite
    religion = old_bulwari_sun_cult
	holding = castle_holding

    # History
}

###c_xharraranaz
610 = {		#Xharraranaz

    # Misc
    culture = zanite
    religion = old_bulwari_sun_cult
	holding = castle_holding

    # History
}

###c_sap_idiqlat
603 = {		#Idiqlatbar

    # Misc
    culture = zanite
    religion = old_bulwari_sun_cult
	holding = castle_holding

    # History
}

##d_varamhar
###c_varamhar
614 = {		#Varamhar

    # Misc
    culture = sun_elvish
    religion = old_bulwari_sun_cult
	holding = castle_holding

    # History
}

###c_traz_buranun
608 = {		#Traz Buranun

    # Misc
    culture = zanite
    religion = old_bulwari_sun_cult
	holding = castle_holding

    # History
}

###c_ulmis_idiqlat
609 = {		#Zandazar

    # Misc
    culture = zanite
    religion = old_bulwari_sun_cult
	holding = castle_holding

    # History
}


##d_anzarzax
###c_anzarzax
590 = {		#Anzarzax

    # Misc
    culture = zanite
    religion = old_bulwari_sun_cult
	holding = castle_holding

    # History
}

###c_linkum
589 = {		#Linkum

    # Misc
    culture = zanite
    religion = old_bulwari_sun_cult
	holding = castle_holding

    # History
}