﻿# Anbennar - kheteratan egyptian clothes 

special_genes = {

	accessory_genes = {


	#####################################
	#									#
	# 			  CLOTHES 				#
	#									#
	#####################################

		
		clothes = {
		
			#Anbennar - anbennar indexes start a 200
			#Looks like you cant make an anbennar specific one of these as it wont load it
			kheteratan_commoner_clothes = {
				index = 200
	
				male = {
					5 = empty
					1 = male_clothes_secular_kheteratan_03_common
					1 = male_clothes_egyptian_shirt_common
				}
	
				female = {
					1 = female_clothes_secular_kheteratan_02_common
					1 = female_clothes_secular_kheteratan_03_common				
				}
	
				boy = male
				girl = female
			}
	
			kheteratan_low_nobility_clothes = {
				index = 201
	
				male = {
					1 = empty
					1 = male_clothes_secular_kheteratan_01_low
					1 = male_clothes_secular_kheteratan_02_low
					1 = male_clothes_secular_kheteratan_01_common
					1 = male_clothes_secular_kheteratan_02_common				
				}
	
				female = {
					1 = female_clothes_secular_kheteratan_01_low		
					1 = female_clothes_secular_kheteratan_01_common	
				    1 = female_clothes_secular_kheteratan_03_low						
				}
				boy = male
				girl = female
			}
	
			kheteratan_high_nobility_clothes = {
				index = 202
	
				male = {
					1 = empty
					2 = male_clothes_secular_kheteratan_01_high
					2 = male_clothes_secular_kheteratan_02_high
				}
	
				female = {
					1 = female_clothes_secular_kheteratan_01_high
				    1 = female_clothes_secular_kheteratan_03_high
				}
				boy = male
				girl = female
			}
	
			kheteratan_war_nobility_clothes = {
				index = 203
	
				male = {
					1 = male_clothing_kheteratan_war_nobility_01
				}
	
				female = {
					1 = female_clothing_kheteratan_war_01
					1 = female_clothing_kheteratan_war_01v2				
				}
				boy = male
				girl = female
			}

			elvish_commoner_clothes = {	#FYI, this is elven-style clothing. Elven cultures will also incorporate the basic clothing set of their environs (so moon elves would use the basic western or whatever)
				index = 204

				male = {
					1 = male_clothes_secular_steppe_nobility_01_common
					1 = male_clothes_secular_dde_abbasid_nobility_01_common

				}

				female = {
					1 = female_clothes_secular_steppe_nobility_01_common
					1 = female_clothes_secular_dde_abbasid_nobility_01_common	
				}

				boy = male
				girl = female
			}

			elvish_low_nobility_clothes = {
				index = 205

				male = {
					1 = male_clothes_secular_steppe_nobility_01_low
					1 = male_clothes_secular_dde_abbasid_nobility_01_low

				}

				female = {
					1 = female_clothes_secular_steppe_nobility_01_low
					1 = female_clothes_secular_dde_abbasid_nobility_01_low

				}

				boy = male
				girl = female
			}

			elvish_high_nobility_clothes = {
				index = 206

				male = {
					1 = male_clothes_secular_steppe_nobility_01_high
					1 = male_clothes_religious_muslim_high_01
					1 = male_clothes_secular_dde_abbasid_nobility_01_high

				}

				female = {
					1 = female_clothes_secular_steppe_nobility_01_high
					1 = female_clothes_secular_dde_abbasid_nobility_01_high

				}

				boy = male
				girl = female
			}

			elvish_royalty_clothes = {
				index = 207

				male = {
					1 = male_clothes_secular_steppe_nobility_01_high
					1 = male_clothes_religious_muslim_high_01
					1 = male_clothes_secular_dde_abbasid_nobility_01_high

				}

				female = {
					1 = female_clothes_secular_steppe_nobility_01_high
					1 = female_clothes_secular_dde_abbasid_nobility_01_high

				}

				boy = male
				girl = female
			}

			elvish_imperial_clothes = {
				index = 208

				male = {
					1 = male_clothes_secular_steppe_nobility_01_high
					1 = male_clothes_religious_muslim_high_01
					1 = male_clothes_secular_dde_abbasid_nobility_01_high

				}

				female = {
					1 = female_clothes_secular_steppe_nobility_01_high
					1 = female_clothes_secular_dde_abbasid_nobility_01_high

				}

				boy = male
				girl = female
			}

			elvish_war_nobility_clothes = {
				index = 209

				male = {
					1 = male_clothes_secular_indian_war_nobility_01_low
					
				}

				female = {
					1 = female_clothes_secular_indian_war_nobility_01_low
					
				}

				boy = male
				girl = female
			}





			################################ VANILLA #####################################################################
			
			


			
			most_clothes = {
				index = 0
				male = {
					1 = male_clothes_secular_western_nobility_01_high
					1 = male_clothes_secular_western_nobility_01_low
					1 = male_clothes_secular_western_nobility_01_common	
					1 = male_clothes_secular_western_nobility_02_high
					1 = male_clothes_secular_western_nobility_02_low
					1 = male_clothes_secular_western_nobility_02_common
					1 = male_clothes_secular_western_nobility_03_high
					1 = male_clothes_secular_western_nobility_03_low
					1 = male_clothes_secular_western_nobility_03_common 
					1 = male_clothes_secular_dde_hre_nobility_01_common
					1 = male_clothes_secular_dde_hre_nobility_01_low
					1 = male_clothes_secular_dde_hre_nobility_01_high
					1 = male_clothes_secular_western_war_nobility_01_low
					1 = male_clothes_situational_western_bedchamber_01_common
					1 = male_clothes_situational_western_prison_01_common
					1 = male_clothes_situational_western_stealth_cloak_01
					1 = male_clothes_secular_crusades_western_war_nobility_01_common
					1 = male_clothes_secular_crusades_western_war_nobility_02_common
					1 = male_clothes_secular_crusades_western_war_nobility_03_common
					1 = male_clothes_secular_crusades_western_war_nobility_04_common
					1 = male_clothes_secular_indian_nobility_01_common
					1 = male_clothes_secular_indian_nobility_02_common
					1 = male_clothes_secular_indian_nobility_01_low	
					1 = male_clothes_secular_indian_nobility_02_low	
					1 = male_clothes_secular_indian_nobility_01_high	
					1 = male_clothes_secular_indian_nobility_02_high
					1 = male_clothes_secular_indian_war_nobility_01_low	
					1 = male_clothes_secular_byzantine_nobility_01_common
					1 = male_clothes_secular_byzantine_nobility_02_common
					1 = male_clothes_secular_byzantine_nobility_01_low
					1 = male_clothes_secular_byzantine_nobility_02_low
					1 = male_clothes_secular_byzantine_nobility_01_high
					1 = male_clothes_secular_byzantine_nobility_02_high
					1 = male_clothes_secular_byzantine_war_nobility_01_low
					1 = male_clothes_secular_steppe_nobility_01_common
					1 = male_clothes_secular_steppe_nobility_02_common
					1 = male_clothes_secular_steppe_nobility_01_low
					1 = male_clothes_secular_steppe_nobility_02_low
					1 = male_clothes_secular_steppe_nobility_01_high
					1 = male_clothes_secular_steppe_nobility_02_high
					1 = male_clothes_secular_steppe_war_nobility_01_low
					1 = male_clothes_secular_mena_nobility_01_common
					1 = male_clothes_secular_mena_nobility_02_common
					1 = male_clothes_secular_dde_abbasid_nobility_01_common
					1 = male_clothes_secular_mena_nobility_01_low
					1 = male_clothes_secular_mena_nobility_02_low
					1 = male_clothes_secular_dde_abbasid_nobility_01_low
					1 = male_clothes_secular_mena_nobility_01_high
					1 = male_clothes_secular_mena_nobility_02_high
					1 = male_clothes_secular_dde_abbasid_nobility_01_high
					1 = male_clothes_secular_mena_war_nobility_01_low
					1 = male_clothes_secular_northern_nobility_01_common
					1 = male_clothes_secular_northern_nobility_02_common
					1 = male_clothes_secular_northern_nobility_01_low
					1 = male_clothes_secular_northern_nobility_02_low
					1 = male_clothes_secular_northern_nobility_01_high
					1 = male_clothes_secular_northern_nobility_02_high
					1 = male_clothes_secular_northern_war_nobility_01_common
					1 = male_clothes_secular_sub_saharan_nobility_01_common
					1 = male_clothes_secular_sub_saharan_nobility_02_common
					1 = male_clothes_secular_sub_saharan_nobility_01_low
					1 = male_clothes_secular_sub_saharan_nobility_02_low
					1 = male_clothes_secular_sub_saharan_nobility_01_high
					1 = male_clothes_secular_sub_saharan_nobility_02_high
					1 = male_clothes_secular_mena_war_nobility_01_low
					1 = male_clothes_secular_dde_hre_nobility_02_common
					1 = male_clothes_secular_dde_hre_nobility_03_common
					1 = male_clothes_secular_dde_hre_nobility_02_low
					1 = male_clothes_secular_dde_hre_nobility_03_low
					1 = male_clothes_secular_dde_hre_war_nobility_01_low
					1 = male_clothes_secular_dde_abbasid_nobility_02_common
					1 = male_clothes_secular_dde_abbasid_nobility_03_common
					1 = male_clothes_secular_dde_abbasid_nobility_02_high
					1 = male_clothes_secular_dde_abbasid_nobility_03_high
					1 = male_clothes_secular_dde_abbasid_war_nobility_01_low
					1 = male_clothes_religious_orthodox_high_01
					1 = male_clothes_religious_orthodox_head_01_common
					1 = male_clothes_religious_muslim_high_01
					1 = male_clothes_religious_dde_muslim_head_01_common
					1 = male_clothes_religious_catholic_devoted_01
					1 = male_clothes_religious_catholic_devoted_02
					1 = male_clothes_religious_catholic_high_01
					1 = male_clothes_religious_dde_catholic_high_01_common
					1 = male_clothes_religious_catholic_high_01
					1 = male_clothes_religious_catholic_head_01
					1 = male_clothes_religious_northern_high_01_common
					1 = male_clothes_religious_african_high_01_common
					1 = male_clothes_religious_hindu_devoted_01
					1 = male_clothes_religious_buddhist_high_01
					1 = male_clothes_religious_zoroastrian_high_01
					1 = male_clothes_religious_jewish_head_01
					1 = male_clothes_religious_steppe_high_01_common
					1 = male_clothes_secular_fp1_common_01
					1 = male_clothes_secular_fp1_common_02
					1 = male_clothes_secular_fp1_nobility_01_low 
					1 = male_clothes_secular_fp1_nobility_02_low
					1 = male_clothes_secular_fp1_nobility_01_high
					1 = male_clothes_secular_fp1_nobility_02_high
					1 = male_clothes_secular_fp1_war_nobility_01
					1 = male_clothes_secular_ep1_jester_01
					1 = male_clothes_secular_fp2_iberian_muslim_common_01
					1 = male_clothes_secular_fp2_iberian_christian_common_01
					1 = male_clothes_secular_fp2_iberian_muslim_nobility_01_low
					1 = male_clothes_secular_fp2_iberian_muslim_nobility_01_high
					1 = male_clothes_secular_fp2_iberian_muslim_nobility_02_low
					1 = male_clothes_secular_fp2_iberian_muslim_nobility_02_high
					1 = male_clothes_secular_fp2_iberian_christian_nobility_01_low
					1 = male_clothes_secular_fp2_iberian_christian_nobility_01_high
					1 = male_clothes_secular_fp2_iberian_christian_nobility_02_low
					1 = male_clothes_secular_fp2_iberian_christian_nobility_02_high
					1 = male_clothes_secular_fp2_iberian_muslim_war_nobility_01
					1 = male_clothes_secular_fp2_iberian_christian_war_nobility_01
				}
				
				female = {
					1 = female_clothes_secular_western_nobility_01_high
					1 = female_clothes_secular_western_nobility_01_low
					1 = female_clothes_secular_western_nobility_01_common	
					1 = female_clothes_secular_western_nobility_02_high
					1 = female_clothes_secular_western_nobility_02_low
					1 = female_clothes_secular_western_nobility_02_common	
					1 = female_clothes_secular_western_nobility_03_high
					1 = female_clothes_secular_western_nobility_03_low
					1 = female_clothes_secular_western_nobility_03_common
					1 = female_clothes_secular_dde_hre_nobility_01_common
					1 = female_clothes_secular_dde_hre_nobility_01_low	
					1 = female_clothes_secular_dde_hre_nobility_01_high
					1 = female_clothes_secular_western_war_nobility_01_low
					1 = female_clothes_situational_western_bedchamber_01_common
					1 = female_clothes_situational_western_prison_01_common
					1 = female_clothes_situational_western_stealth_cloak_01
					1 = female_clothes_secular_crusades_western_war_nobility_01_common
					1 = female_clothes_secular_crusades_western_war_nobility_02_common
					1 = female_clothes_secular_crusades_western_war_nobility_03_common
					1 = female_clothes_secular_crusades_western_war_nobility_04_common
					1 = female_clothes_secular_indian_nobility_01_common
					1 = female_clothes_secular_indian_nobility_02_common
					1 = female_clothes_secular_indian_nobility_01_low	
					1 = female_clothes_secular_indian_nobility_02_low
					1 = female_clothes_secular_indian_nobility_01_high
					1 = female_clothes_secular_indian_nobility_02_high
					1 = female_clothes_secular_indian_war_nobility_01_low
					1 = female_clothes_secular_byzantine_nobility_01_common
					1 = female_clothes_secular_byzantine_nobility_02_common
					1 = female_clothes_secular_byzantine_nobility_01_low
					1 = female_clothes_secular_byzantine_nobility_02_low
					1 = female_clothes_secular_byzantine_nobility_01_high
					1 = female_clothes_secular_byzantine_nobility_02_high
					1 = female_clothes_secular_byzantine_war_nobility_01_low
					1 = female_clothes_secular_steppe_nobility_01_common
					1 = female_clothes_secular_steppe_nobility_02_common
					1 = female_clothes_secular_steppe_nobility_01_low
					1 = female_clothes_secular_steppe_nobility_02_low
					1 = female_clothes_secular_steppe_nobility_01_high
					1 = female_clothes_secular_steppe_nobility_02_high
					1 = female_clothes_secular_steppe_war_nobility_01_low
					1 = female_clothes_secular_mena_nobility_01_common
					1 = female_clothes_secular_mena_nobility_02_common		
					1 = female_clothes_secular_dde_abbasid_nobility_01_common	
					1 = female_clothes_secular_mena_nobility_01_low
					1 = female_clothes_secular_mena_nobility_02_low
					1 = female_clothes_secular_dde_abbasid_nobility_01_low
					1 = female_clothes_secular_mena_nobility_01_high
					1 = female_clothes_secular_mena_nobility_02_high
					1 = female_clothes_secular_dde_abbasid_nobility_01_high
					1 = female_clothes_secular_mena_war_nobility_01_low
					1 = female_clothes_secular_northern_nobility_01_common
					1 = female_clothes_secular_northern_nobility_02_common
					1 = female_clothes_secular_northern_nobility_01_low
					1 = female_clothes_secular_northern_nobility_02_low
					1 = female_clothes_secular_northern_nobility_01_high
					1 = female_clothes_secular_northern_nobility_02_high
					1 = female_clothes_secular_northern_war_nobility_01	
					1 = female_clothes_secular_sub_saharan_nobility_01_common
					1 = female_clothes_secular_sub_saharan_nobility_02_common
					1 = female_clothes_secular_sub_saharan_nobility_01_low
					1 = female_clothes_secular_sub_saharan_nobility_02_low	
					1 = female_clothes_secular_sub_saharan_nobility_01_high
					1 = female_clothes_secular_sub_saharan_nobility_02_high
					1 = female_clothes_secular_mena_war_nobility_01_low
					1 = female_clothes_secular_dde_hre_nobility_02_common
					1 = female_clothes_secular_dde_hre_nobility_03_common
					1 = female_clothes_secular_dde_hre_nobility_02_low
					1 = female_clothes_secular_dde_hre_nobility_03_low
					1 = female_clothes_secular_dde_hre_war_nobility_01_low
					1 = female_clothes_secular_dde_abbasid_nobility_02_common
					1 = female_clothes_secular_dde_abbasid_nobility_03_common
					1 = female_clothes_secular_dde_abbasid_nobility_02_high
					1 = female_clothes_secular_dde_abbasid_nobility_03_high
					1 = female_clothes_secular_dde_abbasid_war_nobility_01_low
					1 = female_clothes_religious_catholic_devoted_01_common
					1 = female_clothes_religious_northern_high_01_common
					1 = female_clothes_religious_african_high_01_common
					1 = female_clothes_religious_hindu_devoted_01
					1 = female_clothes_religious_zoroastrian_high_01
					1 = female_clothes_religious_steppe_high_01_common
					1 = female_clothes_secular_fp1_common_01
					1 = female_clothes_secular_fp1_common_02
					1 = female_clothes_secular_fp1_nobility_01_low 
					1 = female_clothes_secular_fp1_nobility_02_low
					1 = female_clothes_secular_fp1_nobility_01_high
					1 = female_clothes_secular_fp1_nobility_02_high
					1 = female_clothes_secular_fp1_war_nobility_01
					1 = female_clothes_secular_ep1_jester_01
					1 = female_clothes_secular_fp2_iberian_muslim_common_01
					1 = female_clothes_secular_fp2_iberian_christian_common_01
					1 = female_clothes_secular_fp2_iberian_muslim_nobility_01_low
					1 = female_clothes_secular_fp2_iberian_muslim_nobility_01_high
					1 = female_clothes_secular_fp2_iberian_muslim_nobility_02_low
					1 = female_clothes_secular_fp2_iberian_muslim_nobility_02_high
					1 = female_clothes_secular_fp2_iberian_christian_nobility_01_low	
					1 = female_clothes_secular_fp2_iberian_christian_nobility_01_high
					1 = female_clothes_secular_fp2_iberian_christian_nobility_02_low
					1 = female_clothes_secular_fp2_iberian_christian_nobility_02_high
					1 = female_clothes_secular_fp2_iberian_muslim_war_nobility_01
					1 = female_clothes_secular_fp2_iberian_christian_war_nobility_01
				}
				
				boy = male
				girl = female
	 		}

	 		 no_clothes = {
				index = 1
				male = {
					1 = male_clothes_secular_western_nudity_01
				}
				female = {
					1 = female_clothes_secular_western_nudity_01
				}

				# So that children always have clothes!
				boy = {
					1 = male_clothes_situational_western_bedchamber_01_common
				}
				girl = {
					1 = female_clothes_situational_western_bedchamber_01_common
				}
			}


	 ## WESTERN ##

			western_commoner_clothes = {
				index = 2

				male = {
					2 = male_clothes_secular_western_nobility_01_common
					2 = male_clothes_secular_western_nobility_02_common
					2 = male_clothes_secular_western_nobility_03_common
					1 = male_clothes_secular_dde_hre_nobility_01_common
				}

				female = {
					2 = female_clothes_secular_western_nobility_01_common
					2 = female_clothes_secular_western_nobility_02_common
					2 = female_clothes_secular_western_nobility_03_common
					1 = female_clothes_secular_dde_hre_nobility_01_common
				}

				boy = male
				girl = female
			}

			western_low_nobility_clothes = {
				index = 3

				male = {
					2 = male_clothes_secular_western_nobility_01_low
					2 = male_clothes_secular_western_nobility_02_low
					2 = male_clothes_secular_western_nobility_03_low
					1 = male_clothes_secular_dde_hre_nobility_01_low
				}

				female = {
					2 = female_clothes_secular_western_nobility_01_low
					2 = female_clothes_secular_western_nobility_02_low
					2 = female_clothes_secular_western_nobility_03_low
					1 = female_clothes_secular_dde_hre_nobility_01_low
				}

				boy = male
				girl = female
			}

			western_high_nobility_clothes = {
				index = 4

				male = {
					2 = male_clothes_secular_western_nobility_01_high
					2 = male_clothes_secular_western_nobility_02_high
					2 = male_clothes_secular_western_nobility_03_high
					1 = male_clothes_secular_dde_hre_nobility_01_high
				}

				female = {
					2 = female_clothes_secular_western_nobility_01_high
					2 = female_clothes_secular_western_nobility_02_high
					2 = female_clothes_secular_western_nobility_03_high
					1 = female_clothes_secular_dde_hre_nobility_01_high
				}

				boy = male
				girl = female
			}

			western_royalty_clothes = {
				index = 5

				male = {
					2 = male_clothes_secular_western_nobility_01_high
					2 = male_clothes_secular_western_nobility_02_high
					2 = male_clothes_secular_western_nobility_03_high
					1 = male_clothes_secular_dde_hre_nobility_01_high
				}

				female = {
					2 = female_clothes_secular_western_nobility_01_high
					2 = female_clothes_secular_western_nobility_02_high
					2 = female_clothes_secular_western_nobility_03_high
					1 = female_clothes_secular_dde_hre_nobility_01_high
				}

				boy = male
				girl = female
			}

			western_imperial_clothes = {
				index = 6

				male = {
					2 = male_clothes_secular_western_nobility_01_high
					2 = male_clothes_secular_western_nobility_02_high
					2 = male_clothes_secular_western_nobility_03_high
					1 = male_clothes_secular_dde_hre_nobility_01_high
				}

				female = {
					2 = female_clothes_secular_western_nobility_01_high
					2 = female_clothes_secular_western_nobility_02_high
					2 = female_clothes_secular_western_nobility_03_high
					1 = female_clothes_secular_dde_hre_nobility_01_high
				}

				boy = male
				girl = female
			}


			western_war_nobility_clothes = {
				index = 7

				male = {
					1 = male_clothes_secular_western_war_nobility_01_low
				}

				female = {
					1 = female_clothes_secular_western_war_nobility_01_low
				}

				boy = male
				girl = female
			}


			western_sickness = {
				index = 8

				male = {
					1 = male_clothes_situational_western_bedchamber_01_common
				}

				female = {
					1 = female_clothes_situational_western_bedchamber_01_common
				}

				boy = male
				girl = female
			}

			western_prison = {
				index = 9

				male = {
					1 = male_clothes_situational_western_prison_01_common
				}

				female = {
					1 = female_clothes_situational_western_prison_01_common
				}

				boy = male
				girl = female
			}

			western_stealth = {
				index = 10

				male = {
					1 = male_clothes_situational_western_stealth_cloak_01			
				}

				female = {
					1 = female_clothes_situational_western_stealth_cloak_01
				}

				boy = male
				girl = female
			}

			western_bedchamber = {
				index = 11

				male = {
					1 = male_clothes_situational_western_bedchamber_01_common
				}

				female = {
					1 = female_clothes_situational_western_bedchamber_01_common
				}

				boy = male
				girl = female
			}

			western_crusades = {
				index = 12

				male = {
					1 = male_clothes_secular_crusades_western_war_nobility_01_common
					1 = male_clothes_secular_crusades_western_war_nobility_02_common
					1 = male_clothes_secular_crusades_western_war_nobility_03_common
					1 = male_clothes_secular_crusades_western_war_nobility_04_common
				}

				female = {
					1 = female_clothes_secular_crusades_western_war_nobility_01_common
					1 = female_clothes_secular_crusades_western_war_nobility_02_common
					1 = female_clothes_secular_crusades_western_war_nobility_03_common
					1 = female_clothes_secular_crusades_western_war_nobility_04_common

				}

				boy = male
				girl = female
			}


	## INDIAN ##



			indian_commoner_clothes = {
				index = 13

				male = {
					1 = male_clothes_secular_indian_nobility_01_common
					1 = male_clothes_secular_indian_nobility_02_common
					
				}

				female = {
					1 = female_clothes_secular_indian_nobility_01_common
					1 = female_clothes_secular_indian_nobility_02_common
				}
				boy = male
				girl = female
			}

			indian_low_nobility_clothes = {
				index = 14

				male = {
					1 = male_clothes_secular_indian_nobility_01_low	
					1 = male_clothes_secular_indian_nobility_02_low				
				}

				female = {
					1 = female_clothes_secular_indian_nobility_01_low	
					1 = female_clothes_secular_indian_nobility_02_low			
				}
				boy = male
				girl = female
			}

			indian_high_nobility_clothes = {
				index = 15

				male = {
					1 = male_clothes_secular_indian_nobility_01_high	
					1 = male_clothes_secular_indian_nobility_02_high			
				}

				female = {
					1 = female_clothes_secular_indian_nobility_01_high
					1 = female_clothes_secular_indian_nobility_02_high
				}
				boy = male
				girl = female
			}

			indian_war_nobility_clothes = {
				index = 16

				male = {
					1 = male_clothes_secular_indian_war_nobility_01_low
					
				}

				female = {
					1 = female_clothes_secular_indian_war_nobility_01_low
					
				}
				boy = male
				girl = female
			}

		



	## BYZANTINE ##



	 		byzantine_commoner_clothes = {
				index = 17

				male = {
					1 = male_clothes_secular_byzantine_nobility_01_common
					1 = male_clothes_secular_byzantine_nobility_02_common
				}

				female = {
					1 = female_clothes_secular_byzantine_nobility_01_common
					1 = female_clothes_secular_byzantine_nobility_02_common
				}
				boy = male
				girl = female
			}

	 		byzantine_low_nobility_clothes = {
				index = 18

				male = {
					1 = male_clothes_secular_byzantine_nobility_01_low
					1 = male_clothes_secular_byzantine_nobility_02_low
				}

				female = {
					1 = female_clothes_secular_byzantine_nobility_01_low
					1 = female_clothes_secular_byzantine_nobility_02_low
				}
				boy = male
				girl = female
			}

	 		byzantine_high_nobility_clothes = {
				index = 19

				male = {
					1 = male_clothes_secular_byzantine_nobility_01_high
					1 = male_clothes_secular_byzantine_nobility_02_high
				}

				female = {
					1 = female_clothes_secular_byzantine_nobility_01_high
					1 = female_clothes_secular_byzantine_nobility_02_high
				}
				boy = male
				girl = female
			}

			byzantine_war_nobility_clothes = {
				index = 20

				male = {
					1 = male_clothes_secular_byzantine_war_nobility_01_low
					
				}

				female = {
					1 = female_clothes_secular_byzantine_war_nobility_01_low
					
				}
				boy = male
				girl = female
			}



	## STEPPE ##


			steppe_commoner_clothes = {
				index = 21

				male = {
					1 = male_clothes_secular_steppe_nobility_01_common
					1 = male_clothes_secular_steppe_nobility_02_common
				}

				female = {
					1 = female_clothes_secular_steppe_nobility_01_common
					1 = female_clothes_secular_steppe_nobility_02_common
				}

				boy = male
				girl = female
			}

			 steppe_low_nobility_clothes = {
				index = 22

				male = {
					1 = male_clothes_secular_steppe_nobility_01_low
					1 = male_clothes_secular_steppe_nobility_02_low
					
				}

				female = {
					1 = female_clothes_secular_steppe_nobility_01_low
					1 = female_clothes_secular_steppe_nobility_02_low
					
				}
				boy = male
				girl = female
			}

			steppe_high_nobility_clothes = {
				index = 23

				male = {
					1 = male_clothes_secular_steppe_nobility_01_high
					1 = male_clothes_secular_steppe_nobility_02_high
					
				}

				female = {
					1 = female_clothes_secular_steppe_nobility_01_high
					1 = female_clothes_secular_steppe_nobility_02_high
					
				}
				boy = male
				girl = female
			}

			steppe_war_nobility_clothes = {
				index = 24

				male = {
					1 = male_clothes_secular_steppe_war_nobility_01_low
					
				}

				female = {
					1 = female_clothes_secular_steppe_war_nobility_01_low
					
				}
				boy = male
				girl = female
			}





	## MENA ##

			mena_commoner_clothes = {
				index = 25

				male = {
					1 = male_clothes_secular_mena_nobility_01_common
					1 = male_clothes_secular_mena_nobility_02_common
					1 = male_clothes_secular_dde_abbasid_nobility_01_common

				}

				female = {
					1 = female_clothes_secular_mena_nobility_01_common
					1 = female_clothes_secular_mena_nobility_02_common		
					1 = female_clothes_secular_dde_abbasid_nobility_01_common	
				}

				boy = male
				girl = female
			}

			mena_low_nobility_clothes = {
				index = 26

				male = {
					1 = male_clothes_secular_mena_nobility_01_low
					1 = male_clothes_secular_mena_nobility_02_low
					1 = male_clothes_secular_dde_abbasid_nobility_01_low

				}

				female = {
					1 = female_clothes_secular_mena_nobility_01_low
					1 = female_clothes_secular_mena_nobility_02_low
					1 = female_clothes_secular_dde_abbasid_nobility_01_low

				}

				boy = male
				girl = female
			}

			mena_high_nobility_clothes = {
				index = 27

				male = {
					1 = male_clothes_secular_mena_nobility_01_high
					1 = male_clothes_secular_mena_nobility_02_high
					1 = male_clothes_secular_dde_abbasid_nobility_01_high

				}

				female = {
					1 = female_clothes_secular_mena_nobility_01_high
					1 = female_clothes_secular_mena_nobility_02_high
					1 = female_clothes_secular_dde_abbasid_nobility_01_high

				}

				boy = male
				girl = female
			}

			mena_war_nobility_clothes = {
				index = 28

				male = {
					1 = male_clothes_secular_mena_war_nobility_01_low
				}

				female = {
					1 = female_clothes_secular_mena_war_nobility_01_low
				}

				boy = male
				girl = female
			}

			mena_sickness = {
				index = 29
				male = {
					1 = male_clothes_situational_western_bedchamber_01_common
				}

				female = {
					1 = female_clothes_situational_western_bedchamber_01_common
				}

				boy = male
				girl = female
			}

			mena_prison = {
				index = 30

				male = {
					1 = male_clothes_situational_western_prison_01_common
				}

				female = {
					1 = female_clothes_situational_western_prison_01_common
				}

				boy = male
				girl = female
			}

			mena_stealth = {
				index = 31

				male = {
					1 = male_clothes_situational_mena_stealth_01
				}

				female = {
					1 = female_clothes_situational_mena_stealth_01
				}

				boy = male
				girl = female
			}

			mena_bedchamber = {
				index = 32

				male = {
					1 = male_clothes_situational_western_bedchamber_01_common
				}

				female = {
					1 = female_clothes_situational_western_bedchamber_01_common
				}

				boy = male
				girl = female
			}


			mena_crusades = {
				index = 33

				male = {
					1 = male_clothes_secular_mena_war_nobility_01_low
				}

				female = {
					1 = female_clothes_secular_mena_war_nobility_01_low
				}

				boy = male
				girl = female
			}


	## Northern Pagans ##


			northern_commoner_clothes = {
				index = 34

				male = {
					1 = male_clothes_secular_northern_nobility_01_common
					1 = male_clothes_secular_northern_nobility_02_common
				}

				female = {
					1 = female_clothes_secular_northern_nobility_01_common
					1 = female_clothes_secular_northern_nobility_02_common
				}

				boy = male
				girl = female
			}

			 northern_low_nobility_clothes = {
				index = 35

				male = {
					1 = male_clothes_secular_northern_nobility_01_low
					1 = male_clothes_secular_northern_nobility_02_low
				}

				female = {
					1 = female_clothes_secular_northern_nobility_01_low
					1 = female_clothes_secular_northern_nobility_02_low		
				}
				boy = male
				girl = female
			}

			northern_high_nobility_clothes = {
				index = 36

				male = {

					1 = male_clothes_secular_northern_nobility_01_high
					1 = male_clothes_secular_northern_nobility_02_high
				}

				female = {
					1 = female_clothes_secular_northern_nobility_01_high
					1 = female_clothes_secular_northern_nobility_02_high
				}
				boy = male
				girl = female
			}

			northern_war_nobility_clothes = {
				index = 37

				male = {
					1 = male_clothes_secular_northern_war_nobility_01_common
				}

				female = {
					1 = female_clothes_secular_northern_war_nobility_01	
				}
				boy = male
				girl = female
			}


	## Sub-Saharan African ##


			sub_saharan_commoner_clothes = {
				index = 38

				male = {
					1 = male_clothes_secular_sub_saharan_nobility_01_common
					1 = male_clothes_secular_sub_saharan_nobility_02_common
				}

				female = {
					1 = female_clothes_secular_sub_saharan_nobility_01_common
					1 = female_clothes_secular_sub_saharan_nobility_02_common
				}

				boy = male
				girl = female
			}

			sub_saharan_low_nobility_clothes = {
				index = 39

				male = {
					1 = male_clothes_secular_sub_saharan_nobility_01_low
					1 = male_clothes_secular_sub_saharan_nobility_02_low
				}

				female = {
					1 = female_clothes_secular_sub_saharan_nobility_01_low
					1 = female_clothes_secular_sub_saharan_nobility_02_low				
				}
				boy = male
				girl = female
			}

			sub_saharan_high_nobility_clothes = {
				index = 40

				male = {
					1 = male_clothes_secular_sub_saharan_nobility_01_high
					1 = male_clothes_secular_sub_saharan_nobility_02_high
				}

				female = {
					1 = female_clothes_secular_sub_saharan_nobility_01_high
					1 = female_clothes_secular_sub_saharan_nobility_02_high
				}
				boy = male
				girl = female
			}

			sub_saharan_war_nobility_clothes = {
				index = 41

				male = {
					1 = male_clothes_secular_mena_war_nobility_01_low
				}

				female = {
					1 = female_clothes_secular_mena_war_nobility_01_low
				}
				boy = male
				girl = female
			}


	## DDE HRE ##

			dde_hre_commoner_clothes = {
				index = 42

				male = {
					# 1 = male_clothes_secular_dde_hre_nobility_01_common
					1 = male_clothes_secular_dde_hre_nobility_02_common
					1 = male_clothes_secular_dde_hre_nobility_03_common
				}

				female = {
					# 1 = female_clothes_secular_dde_hre_nobility_01_common
					1 = female_clothes_secular_dde_hre_nobility_02_common
					1 = female_clothes_secular_dde_hre_nobility_03_common
				}

				boy = male
				girl = female
			}

			dde_hre_low_nobility_clothes = {
				index = 43

				male = {
					# 1 = male_clothes_secular_dde_hre_nobility_01_low
					1 = male_clothes_secular_dde_hre_nobility_02_low
					1 = male_clothes_secular_dde_hre_nobility_03_low
				}

				female = {
					# 1 = female_clothes_secular_dde_hre_nobility_01_low
					1 = female_clothes_secular_dde_hre_nobility_02_low
					1 = female_clothes_secular_dde_hre_nobility_03_low
				}

				boy = male
				girl = female
			}

			dde_hre_high_nobility_clothes = {
				index = 44

				male = {
					# 1 = male_clothes_secular_dde_hre_nobility_01_high
					1 = male_clothes_secular_dde_hre_nobility_02_high
					1 = male_clothes_secular_dde_hre_nobility_03_high
				}

				female = {
					# 1 = female_clothes_secular_dde_hre_nobility_01_high
					1 = female_clothes_secular_dde_hre_nobility_02_high
					1 = female_clothes_secular_dde_hre_nobility_03_high
				}

				boy = male
				girl = female
			}

			dde_hre_war_nobility_clothes = {
				index = 45

				male = {
					1 = male_clothes_secular_dde_hre_war_nobility_01_low
				}

				female = {
					1 = female_clothes_secular_dde_hre_war_nobility_01_low
				}

				boy = male
				girl = female
			}



	## DDE ADDASID ##

			dde_abbasid_commoner_clothes = {
				index = 46

				male = {
					1 = male_clothes_secular_dde_abbasid_nobility_01_common
					1 = male_clothes_secular_dde_abbasid_nobility_02_common
					1 = male_clothes_secular_dde_abbasid_nobility_03_common
				}

				female = {
					# 1 = female_clothes_secular_dde_abbasid_nobility_01_common
					1 = female_clothes_secular_dde_abbasid_nobility_02_common
					1 = female_clothes_secular_dde_abbasid_nobility_03_common
				}

				boy = male
				girl = female
			}

			dde_abbasid_low_nobility_clothes = {
				index = 47

				male = {
					1 = male_clothes_secular_dde_abbasid_nobility_01_low
					1 = male_clothes_secular_dde_abbasid_nobility_02_low
					1 = male_clothes_secular_dde_abbasid_nobility_03_low
				}

				female = {
					1 = female_clothes_secular_dde_abbasid_nobility_01_low
					1 = female_clothes_secular_dde_abbasid_nobility_02_low
					1 = female_clothes_secular_dde_abbasid_nobility_03_low
				}

				boy = male
				girl = female
			}

			dde_abbasid_high_nobility_clothes = {
				index = 48

				male = {
					 1 = male_clothes_secular_dde_abbasid_nobility_01_high
					1 = male_clothes_secular_dde_abbasid_nobility_02_high
					1 = male_clothes_secular_dde_abbasid_nobility_03_high
				}

				female = {
					1 = female_clothes_secular_dde_abbasid_nobility_01_high
					1 = female_clothes_secular_dde_abbasid_nobility_02_high
					1 = female_clothes_secular_dde_abbasid_nobility_03_high
				}

				boy = male
				girl = female
			}

			dde_abbasid_war_nobility_clothes = {
				index = 49

				male = {
					1 = male_clothes_secular_dde_abbasid_war_nobility_01_low
				}

				female = {
					1 = female_clothes_secular_dde_abbasid_war_nobility_01_low
				}

				boy = male
				girl = female
			}





	 ## RELIGIOUS ##

	# orthodox #

			religious_orthodox_high_clothes = {
				index = 50

				male = {
					1 = male_clothes_religious_orthodox_high_01
				}

				female = {
					1 = female_clothes_religious_catholic_devoted_01_common
				}

				boy = male
				girl = female
			}

			religious_orthodox_head_clothes = {
				index = 51

				male = {
					1 = male_clothes_religious_orthodox_head_01_common
				}

				female = {
					1 = female_clothes_religious_catholic_devoted_01_common
				}

				boy = male
				girl = female
			}

	# muslim #

			religious_muslim_high_clothes = {
				index = 52

				male = {
					1 = male_clothes_religious_muslim_high_01

				}

				female = {
					1 = female_clothes_secular_mena_nobility_01_high
				}

				boy = male
				girl = female
			}

			religious_muslim_head_clothes = {
				index = 53

				male = {
					1 = male_clothes_religious_dde_muslim_head_01_common
				}

				female = {
					1 = female_clothes_secular_mena_nobility_01_high
				}

				boy = male
				girl = female
			}


	# catholic #

			religious_catholic_devoted_clothes = {
				index = 54

				male = {
					1 = male_clothes_religious_catholic_devoted_01
					1 = male_clothes_religious_catholic_devoted_02
				}

				female = {
					1 = female_clothes_religious_catholic_devoted_01_common
				}

				boy = male
				girl = female
			}

			religious_catholic_high_clothes = {
				index = 55

				male = { # Duplicate weights to make seed different from catholic_high headgear gene
					1 = male_clothes_religious_catholic_high_01
					2 = male_clothes_religious_dde_catholic_high_01_common
					1 = male_clothes_religious_catholic_high_01
					
				}

				female = {
					1 = female_clothes_religious_catholic_devoted_01_common
				}

				boy = male
				girl = female
			}

			religious_catholic_head_clothes = {
				index = 56
				male = {
					1 = male_clothes_religious_catholic_head_01
				}
				female = {
					1 = female_clothes_religious_catholic_devoted_01_common

				}
				boy = male
				girl = female
			}



	# dde catholic #


			#religious_dde_catholic_high_clothes = {
			#	index = 57
			#
			#	male = {
			#		1 = male_clothes_religious_dde_catholic_high_01_common
			#		
			#	}
			#
			#	female = {
			#		1 = female_clothes_religious_catholic_devoted_01_common
			#	}
			#
			#	boy = male
			#	girl = female
			#}

	# african pagans #
		

			religious_african_high_clothes = {
				index = 58

				male = {
					1 = male_clothes_religious_african_high_01_common
					
				}

				female = {
					1 = female_clothes_religious_african_high_01_common
				}

				boy = male
				girl = female
			}

	# northern pagans #		

			 religious_northern_high_clothes = {
				index = 59

				male = {
					1 = male_clothes_religious_northern_high_01
					
				}

				female = {
					1 = female_clothes_religious_northern_high_01
				}

				boy = male
				girl = female
			}

	# hindu #


			 religious_hindu_devoted_clothes = {
				index = 60

				male = {
					1 = male_clothes_religious_hindu_devoted_01
					
				}

				female = {
					1 = female_clothes_religious_hindu_devoted_01
				}

				boy = male
				girl = female
			}


	# jain #

			 religious_jain_high_clothes = {
				index = 61

				male = {
					1 = male_clothes_religious_hindu_devoted_01
					
				}

				female = {
					1 = female_clothes_religious_hindu_devoted_01
				}

				boy = male
				girl = female
			}

	 # buddhist #
			

			religious_buddhist_high_clothes = {
				index = 62

				male = {
					1 = male_clothes_religious_buddhist_high_01
					
				}

				female = {
					1 = female_clothes_religious_hindu_devoted_01
				}

				boy = male
				girl = female
			}

	# zoroastrian #
			

			religious_zoroastrian_high_clothes = {
				index = 63

				male = {
					1 = male_clothes_religious_zoroastrian_high_01
					
				}

				female = {
					1 = female_clothes_religious_zoroastrian_high_01
				}

				boy = male
				girl = female
			}


	 # jewish #
			
			religious_jewish_head_clothes = {
				index = 64

				male = {
					1 = male_clothes_religious_jewish_head_01
					
				}

				female = {
					1 = female_clothes_religious_zoroastrian_high_01
				}

				boy = male
				girl = female
			}

			religious_jewish_high_clothes = {
				index = 65

				male = {
					1 = male_clothes_religious_jewish_high_01
					
				}

				female = {
					1 = female_clothes_religious_zoroastrian_high_01
				}

				boy = male
				girl = female
			}


	 # steppe #
			
			religious_steppe_high_clothes = {
				index = 66

				male = {
					1 = male_clothes_religious_steppe_high_01_common
					
				}

				female = {
					1 = female_clothes_religious_steppe_high_01_common
				}

				boy = male
				girl = female
			}

	### Children ###

			western_children_commoner_clothes = {
				index = 67

				male = {
					2 = male_clothes_secular_western_child_01_common
				}

				female = {
					2 = female_clothes_secular_western_child_01_common
				}

				boy = male
				girl = female
			}

	## FP1 - Fury of thee Northmen ##


			fp1_commoner_clothes = {
				index = 68

				male = {
					1 = male_clothes_secular_fp1_common_01
					1 = male_clothes_secular_fp1_common_02
				}

				female = {
					1 = female_clothes_secular_fp1_common_01
					1 = female_clothes_secular_fp1_common_02
				}

				boy = male
				girl = female
			}

			 fp1_low_nobility_clothes = {
				index = 69

				male = {
					1 = male_clothes_secular_fp1_nobility_01_low 
					1 = male_clothes_secular_fp1_nobility_02_low
				}

				female = {
					1 = female_clothes_secular_fp1_nobility_01_low	
					1 = female_clothes_secular_fp1_nobility_02_low	
				}
				boy = male
				girl = female
			}

			fp1_high_nobility_clothes = {
				index = 70

				male = {
					1 = male_clothes_secular_fp1_nobility_01_high
					1 = male_clothes_secular_fp1_nobility_02_high
				}

				female = {
					1 = female_clothes_secular_fp1_nobility_01_high
					1 = female_clothes_secular_fp1_nobility_02_high
				}
				boy = male
				girl = female
			}

			fp1_war_nobility_clothes = {
				index = 71

				male = {
					1 = male_clothes_secular_fp1_war_nobility_01
				}

				female = {
					1 = female_clothes_secular_fp1_war_nobility_01	
				}
				boy = male
				girl = female
			}

			ep1_jester_clothes = {
				index = 72

				male = {
					1 = male_clothes_secular_ep1_jester_01
				}

				female = {
					1 = female_clothes_secular_ep1_jester_01
				}

				boy = male
				girl = female
			}

	## FP2 - The Fate of Iberia ##


			fp2_muslim_commoner_clothes = {
				index = 73

				male = {
					1 = male_clothes_secular_fp2_iberian_muslim_common_01
				}

				female = {
					1 = female_clothes_secular_fp2_iberian_muslim_common_01
				}

				boy = male
				girl = female
			}


			fp2_christian_commoner_clothes = {
				index = 74

				male = {
					1 = male_clothes_secular_fp2_iberian_christian_common_01
				}

				female = {
					1 = female_clothes_secular_fp2_iberian_christian_common_01
				}

				boy = male
				girl = female
			}

			fp2_muslim_low_nobility_clothes = {
				index = 75

				male = {
					1 = male_clothes_secular_fp2_iberian_muslim_nobility_01_low
					1 = male_clothes_secular_fp2_iberian_muslim_nobility_02_low
				}

				female = {
					1 = female_clothes_secular_fp2_iberian_muslim_nobility_01_low
					1 = female_clothes_secular_fp2_iberian_muslim_nobility_02_low

				}
				boy = male
				girl = female
			}

			fp2_muslim_high_nobility_clothes = {
				index = 76

				male = {
					1 = male_clothes_secular_fp2_iberian_muslim_nobility_01_high
					1 = male_clothes_secular_fp2_iberian_muslim_nobility_02_high
				}

				female = {
					1 = female_clothes_secular_fp2_iberian_muslim_nobility_01_high	
					1 = female_clothes_secular_fp2_iberian_muslim_nobility_02_high

				}
				boy = male
				girl = female
			}


			fp2_christian_low_nobility_clothes = {
				index = 77

				male = {
					1 = male_clothes_secular_fp2_iberian_christian_nobility_01_low
					1 = male_clothes_secular_fp2_iberian_christian_nobility_02_low
				}

				female = {
					1 = female_clothes_secular_fp2_iberian_christian_nobility_01_low	
					1 = female_clothes_secular_fp2_iberian_christian_nobility_02_low

				}
				boy = male
				girl = female
			}

			fp2_christian_high_nobility_clothes = {
				index = 78

				male = {
					1 = male_clothes_secular_fp2_iberian_christian_nobility_01_high
					1 = male_clothes_secular_fp2_iberian_christian_nobility_02_high
				}

				female = {	
					1 = female_clothes_secular_fp2_iberian_christian_nobility_01_high	
					1 = female_clothes_secular_fp2_iberian_christian_nobility_02_high

				}
				boy = male
				girl = female
			}

			fp2_muslim_war_nobility_clothes = {
				index = 79

				male = {
					1 = male_clothes_secular_fp2_iberian_muslim_war_nobility_01
				}

				female = {
					1 = female_clothes_secular_fp2_iberian_muslim_war_nobility_01	
				}
				boy = male
				girl = female
				
				}
			
			fp2_christian_war_nobility_clothes = {
				index = 80

				male = {
					1 = male_clothes_secular_fp2_iberian_christian_war_nobility_01
				}

				female = {
					1 = female_clothes_secular_fp2_iberian_christian_war_nobility_01
				}
				boy = male
				girl = female

				}
				
		}	
	}
}
